# 
# Wavefront material file
# Converted by the DEEP Exploration  Deep Exploration 5.7 5.7.3.4977 Release
# Right Hemisphere, LTD
# http://www.righthemisphere.com/
# 

newmtl Vgr_WeapPlatGun_Front_EXPORT
Ka 0.2 0.2 0.2
Kd 0.8 0.8 0.8
Ks 0 0 0
illum 2
Ns 2
map_Kd Vgr_WeapPlatGun_Front_EXPORT[1].png
map_bump 
bump 
map_opacity 
map_d 
refl 
map_kS 
map_kA 
map_Ns 

newmtl Vgr_WeapPlatGun_Burner_EXPORT
Ka 0.2 0.2 0.2
Kd 0.8 0.8 0.8
Ks 0 0 0
illum 2
Ns 2
map_Kd Vgr_WeapPlatGun_Burner_EXPORT[1].png
map_bump 
bump 
map_opacity 
map_d 
refl 
map_kS 
map_kA 
map_Ns 

newmtl Vgr_WeapPlatGun_Front_EXPORT0
Ka 0.2 0.2 0.2
Kd 0.8 0.8 0.8
Ks 0 0 0
illum 2
Ns 2
map_Kd Vgr_WeapPlatGun_Front_EXPORT[1].png
map_bump 
bump 
map_opacity 
map_d 
refl 
map_kS 
map_kA 
map_Ns 

newmtl Vgr_WeapPlatMiss_Launch_EXPORT
Ka 0.2 0.2 0.2
Kd 0.8 0.8 0.8
Ks 0 0 0
illum 2
Ns 2
map_Kd Vgr_WeapPlatMiss_Launch_EXPORT[1].png
map_bump 
bump 
map_opacity 
map_d 
refl 
map_kS 
map_kA 
map_Ns 

newmtl Vgr_WeapPlatMiss_Launch_EXPORT0
Ka 0.2 0.2 0.2
Kd 0.8 0.8 0.8
Ks 0 0 0
illum 2
Ns 2
map_Kd Vgr_WeapPlatMiss_Launch_EXPORT[1].png
map_bump 
bump 
map_opacity 
map_d 
refl 
map_kS 
map_kA 
map_Ns 
